EDA Projeto 1 - Checkpoint 3
…
Para essa análise avaliaremos os episódios mais populares a partir do número de avaliações de usuários.

Ainda, consideraremos “amar” um episódio significa dar nota 10 para o mesmo, ao passo que “odiar” um episódio significa atribuir nota 1.

Assim, restingiremos nossa análise aos 30 episódios mais populares da nossa base de dados, que são:

most_popular_episodes = 
    episodes %>%
    select(series_name, episode, user_votes, r1, r10) %>%
    arrange(desc(user_votes)) %>%
    head(30)
show(most_popular_episodes)

## # A tibble: 30 x 5
##    series_name      episode                       user_votes      r1   r10
##    <chr>            <chr>                              <dbl>   <dbl> <dbl>
##  1 Game of Thrones  Battle of the Bastards           138353. 0.0155  0.922
##  2 Game of Thrones  The Winds of Winter               93680. 0.0119  0.929
##  3 Breaking Bad     Ozymandias                        87991. 0.0383  0.713
##  4 Game of Thrones  Hardhome                          59404. 0.0679  0.299
##  5 Breaking Bad     Felina                            59235. 0.0326  0.657
##  6 Game of Thrones  The Rains of Castamere            55077. 0.0275  0.440
##  7 Game of Thrones  The Door                          42617. 0.00781 0.817
##  8 Game of Thrones  The Lion and the Rose             31235. 0.0187  0.798
##  9 The Walking Dead The Day Will Come When You W…     30624. 0.0592  0.649
## 10 Game of Thrones  Home                              29785. 0.0128  0.701
## # ... with 20 more rows
…
