EDA Sense8
…
episodes %>% 
    arrange(-amado_odiado)

## # A tibble: 23 x 21
##    series_name episode     series_ep season season_ep url      user_rating
##    <chr>       <chr>           <dbl> <chr>      <dbl> <chr>          <dbl>
##  1 Sense8      Demons             6. 1             6. http://…        8.60
##  2 Sense8      Art Is Lik…        5. 1             5. http://…        8.30
##  3 Sense8      I Am Also …        2. 1             2. http://…        8.00
##  4 Sense8      I Have No …       19. 2             7. http://…        9.10
##  5 Sense8      Just Turn …       11. 1            11. http://…        9.10
##  6 Sense8      Isolated A…       18. 2             6. http://…        9.10
##  7 Sense8      I Can't Le…       12. 1            12. http://…        9.30
##  8 Sense8      Fear Never…       17. 2             5. http://…        9.10
##  9 Sense8      All I Want…       20. 2             8. http://…        9.30
## 10 Sense8      What Is Hu…       10. 1            10. http://…        9.00
## # ... with 13 more rows, and 14 more variables: user_votes <dbl>,
## #   r1 <dbl>, r2 <dbl>, r3 <dbl>, r4 <dbl>, r5 <dbl>, r6 <dbl>, r7 <dbl>,
## #   r8 <dbl>, r9 <dbl>, r10 <dbl>, rank_odiados <int>, rank_amados <int>,
## #   amado_odiado <int>
…
